{
  "allowCompoundWords": true,
  "dictionaries": [
    "lua",
    "user",
    "vim"
  ],
  "dictionaryDefinitions": [
    {
      "name": "user",
      "path": "~/.local/share/cspell/user.txt",
      "description": "User dictionary"
    },
    {
      "name": "vim",
      "path": "~/.local/share/cspell/vim.txt.gz",
      "description": "Vim Script Language dictionary"
    }
  ],
  "languageSettings": [
    {
      "languageId": "lua",
      "locale": "*",
      "ignoreRegExpList": [
        "/require.*/"
      ],
      "dictionaries": [
        "lua"
      ]
    },
    {
      "languageId": "vim",
      "locale": "*",
      "ignoreRegExpList": [
        "/Plug .*/"
      ],
      "dictionaries": [
        "vim"
      ]
    }
  ]
}
